%YAML 1.1
%TAG !u! tag:unity3d.com,2011:
--- !u!1001 &100100000
Prefab:
  m_ObjectHideFlags: 1
  serializedVersion: 2
  m_Modification:
    m_TransformParent: {fileID: 0}
    m_Modifications: []
    m_RemovedComponents: []
  m_ParentPrefab: {fileID: 0}
  m_RootGameObject: {fileID: 1149069744072438}
  m_IsPrefabParent: 1
--- !u!1 &1149069744072438
GameObject:
  m_ObjectHideFlags: 0
  m_PrefabParentObject: {fileID: 0}
  m_PrefabInternal: {fileID: 100100000}
  serializedVersion: 5
  m_Component:
  - component: {fileID: 4131473157699588}
  - component: {fileID: 114811866809453280}
  m_Layer: 0
  m_Name: WrongwaySpawner
  m_TagString: Untagged
  m_Icon: {fileID: 0}
  m_NavMeshLayer: 0
  m_StaticEditorFlags: 0
  m_IsActive: 1
--- !u!4 &4131473157699588
Transform:
  m_ObjectHideFlags: 1
  m_PrefabParentObject: {fileID: 0}
  m_PrefabInternal: {fileID: 100100000}
  m_GameObject: {fileID: 1149069744072438}
  m_LocalRotation: {x: -0, y: -0, z: -0, w: 1}
  m_LocalPosition: {x: -6, y: 12, z: 1}
  m_LocalScale: {x: 1, y: 1, z: 1}
  m_Children: []
  m_Father: {fileID: 0}
  m_RootOrder: 0
  m_LocalEulerAnglesHint: {x: 0, y: 0, z: 0}
--- !u!114 &114811866809453280
MonoBehaviour:
  m_ObjectHideFlags: 1
  m_PrefabParentObject: {fileID: 0}
  m_PrefabInternal: {fileID: 100100000}
  m_GameObject: {fileID: 1149069744072438}
  m_Enabled: 1
  m_EditorHideFlags: 0
  m_Script: {fileID: 11500000, guid: 0c4c679cc66c7c3478c9de5604fd43a8, type: 3}
  m_Name: 
  m_EditorClassIdentifier: 
  prefab1: {fileID: 0}
  prefab2: {fileID: 0}
  prefab3: {fileID: 0}
  prefab4: {fileID: 0}
  prefab5: {fileID: 0}
  prefab6: {fileID: 0}
  prefab7: {fileID: 0}
  prefab8: {fileID: 0}
  prefab9: {fileID: 0}
  prefab10: {fileID: 0}
  prefab11: {fileID: 0}
  prefab12: {fileID: 0}
  prefab13: {fileID: 0}
  prefab14: {fileID: 0}
  prefab15: {fileID: 0}
  prefab16: {fileID: 0}
  prefab17: {fileID: 0}
  prefab18: {fileID: 0}
  prefab19: {fileID: 0}
  prefab20: {fileID: 0}
  spawnRate: 2
