%YAML 1.1
%TAG !u! tag:unity3d.com,2011:
--- !u!1045 &1
EditorBuildSettings:
  m_ObjectHideFlags: 0
  serializedVersion: 2
  m_Scenes:
  - enabled: 1
    path: Assets/Scenes/qbertmenu.unity
    guid: 5f1c2d7553924a8448f4dc1e8aff5064
  - enabled: 1
    path: Assets/Scenes/Level1.unity
    guid: 460923bac577c804390415e93c9ae783
  - enabled: 1
    path: Assets/Scenes/Credits.unity
    guid: c1a5c3221df69f84580d758b9158eccc
